^K:\LEVELEDITOR\LEVELEDITOR\RELEASE\LEVELEDITOR.EXE.INTERMEDIATE.MANIFEST
/nologo /verbose /outputresource:"K:\LevelEditor\Release\LevelEditor.exe;#1" /manifest Release\LevelEditor.exe.intermediate.manifest
^E:\OPENGL\LEVELEDITOR\LEVELEDITOR\RELEASE\LEVELEDITOR.EXE.INTERMEDIATE.MANIFEST
/nologo /verbose /outputresource:"E:\OpenGL\LevelEditor\Release\LevelEditor.exe;#1" /manifest Release\LevelEditor.exe.intermediate.manifest
